build/wave_regfile.vcd
$date
	Fri Feb 27 16:03:24 2026
$end
$version
	Icarus Verilog
$end
$timescale
	1s
$end
$scope module tb_regfile $end
$var wire 32 ! rd2 [31:0] $end
$var wire 32 " rd1 [31:0] $end
$var reg 1 # clk $end
$var reg 32 $ d [31:0] $end
$var reg 5 % rd [4:0] $end
$var reg 5 & rs1 [4:0] $end
$var reg 5 ' rs2 [4:0] $end
$var reg 1 ( rst $end
$var reg 32 ) wd [31:0] $end
$var reg 1 * we $end
$var integer 32 + k [31:0] $end
$var integer 32 , r [31:0] $end
$var integer 32 - r1 [31:0] $end
$var integer 32 . r2 [31:0] $end
$scope module dut $end
$var wire 1 # clk $end
$var wire 5 / rd [4:0] $end
$var wire 5 0 rs1 [4:0] $end
$var wire 5 1 rs2 [4:0] $end
$var wire 1 ( rst $end
$var wire 32 2 wd [31:0] $end
$var wire 1 * we $end
$var wire 32 3 rd2 [31:0] $end
$var wire 32 4 rd1 [31:0] $end
$scope begin $ivl_for_loop0 $end
$var integer 32 5 i [31:0] $end
$upscope $end
$upscope $end
$scope begin $ivl_for_loop1 $end
$var integer 32 6 i [31:0] $end
$upscope $end
$scope task check_read $end
$upscope $end
$scope task write_reg $end
$upscope $end
$upscope $end
$enddefinitions $end
#0
$dumpvars
bx 6
b0 5
b0 4
b0 3
b0 2
b0 1
b0 0
b0 /
bx .
bx -
bx ,
bx +
0*
b0 )
1(
b0 '
b0 &
b0 %
bx $
0#
b0 "
b0 !
$end
#5
b100000 5
1#
#10
0#
#15
b100000 5
1#
#20
b100000 6
0(
0#
#25
1#
#30
b10001000100010001000100010001 )
b10001000100010001000100010001 2
b1 %
b1 /
1*
0#
#35
1#
#40
0*
0#
#45
1#
#50
b100010001000100010001000100010 )
b100010001000100010001000100010 2
b10 %
b10 /
1*
0#
#55
1#
#60
0*
0#
#65
1#
#70
b11011110101011011011111011101111 )
b11011110101011011011111011101111 2
b11111 %
b11111 /
1*
0#
#75
1#
#80
b100010001000100010001000100010 !
b100010001000100010001000100010 3
b10001000100010001000100010001 "
b10001000100010001000100010001 4
b10 '
b10 1
b1 &
b1 0
0*
0#
#81
b0 !
b0 3
b11011110101011011011111011101111 "
b11011110101011011011111011101111 4
b0 '
b0 1
b11111 &
b11111 0
#85
1#
#90
b11111111111111111111111111111111 )
b11111111111111111111111111111111 2
b0 %
b0 /
1*
0#
#95
1#
#100
b10001000100010001000100010001 !
b10001000100010001000100010001 3
b0 "
b0 4
b1 '
b1 1
b0 &
b0 0
0*
0#
#101
b1000000100010010101111010000001 $
b10010 ,
b0 +
#105
1#
#110
b1000000100010010101111010000001 )
b1000000100010010101111010000001 2
b10010 %
b10010 /
1*
0#
#115
1#
#120
b0 !
b0 3
b110 '
b110 1
b110 .
b0 -
0*
0#
#121
b11000110110111111001100110001101 $
b10000 ,
b1 +
#125
1#
#130
b11000110110111111001100110001101 )
b11000110110111111001100110001101 2
b10000 %
b10000 /
1*
0#
#135
1#
#140
b10001000100010001000100010001 !
b10001000100010001000100010001 3
b1 '
b1 1
b110 &
b110 0
b1 .
b110 -
0*
0#
#141
b10000110110101111100110100001101 $
b10 +
#145
1#
#150
b10000110110101111100110100001101 )
b10000110110101111100110100001101 2
1*
0#
#155
1#
#160
b0 !
b0 3
b10011 '
b10011 1
b10111 &
b10111 0
b10011 .
b10111 -
0*
0#
#161
b11000110001011011111011110001100 $
b11110 ,
b11 +
#165
1#
#170
b11000110001011011111011110001100 )
b11000110001011011111011110001100 2
b11110 %
b11110 /
1*
0#
#175
1#
#180
b11011110101011011011111011101111 "
b11011110101011011011111011101111 4
b1100 '
b1100 1
b11111 &
b11111 0
b1100 .
b11111 -
0*
0#
#181
b1010101000100111101001010101010 $
b1100 ,
b100 +
#185
1#
#190
b1010101000100111101001010101010 )
b1010101000100111101001010101010 2
b1100 %
b1100 /
1*
0#
#195
b1010101000100111101001010101010 !
b1010101000100111101001010101010 3
1#
#200
b0 !
b0 3
b11000110001011011111011110001100 "
b11000110001011011111011110001100 4
b111 '
b111 1
b11110 &
b11110 0
b111 .
b11110 -
0*
0#
#201
b11000111111011001101101110001111 $
b1 ,
b101 +
#205
1#
#210
b11000111111011001101101110001111 )
b11000111111011001101101110001111 2
b1 %
b1 /
1*
0#
#215
1#
#220
b1010101000100111101001010101010 !
b1010101000100111101001010101010 3
b11011110101011011011111011101111 "
b11011110101011011011111011101111 4
b1100 '
b1100 1
b11111 &
b11111 0
b1100 .
b11111 -
0*
0#
#221
b1100010110010100100111011000101 $
b1110 ,
b110 +
#225
1#
#230
b1100010110010100100111011000101 )
b1100010110010100100111011000101 2
b1110 %
b1110 /
1*
0#
#235
1#
#240
b0 !
b0 3
b0 "
b0 4
b1011 '
b1011 1
b10101 &
b10101 0
b1011 .
b10101 -
0*
0#
#241
b110010101001110010011001100101 $
b10 ,
b111 +
#245
1#
#250
b110010101001110010011001100101 )
b110010101001110010011001100101 2
b10 %
b10 /
1*
0#
#255
1#
#260
b10000110110101111100110100001101 !
b10000110110101111100110100001101 3
b10000 '
b10000 1
b110 &
b110 0
b10000 .
b110 -
0*
0#
#261
b10010000011001000010000100100000 $
b1000 ,
b1000 +
#265
1#
#270
b10010000011001000010000100100000 )
b10010000011001000010000100100000 2
b1000 %
b1000 /
1*
0#
#275
1#
#280
b0 !
b0 3
b1001 '
b1001 1
b11010 &
b11010 0
b1001 .
b11010 -
0*
0#
#281
b1001100000111011100000010011 $
b1001 ,
b1001 +
#285
1#
#290
b1001100000111011100000010011 )
b1001100000111011100000010011 2
b1001 %
b1001 /
1*
0#
#295
b1001100000111011100000010011 !
b1001100000111011100000010011 3
1#
#300
b0 !
b0 3
b101 '
b101 1
b0 &
b0 0
b101 .
b0 -
0*
0#
#301
b1101010101001100010101011010101 $
b10110 ,
b1010 +
#305
1#
#310
b1101010101001100010101011010101 )
b1101010101001100010101011010101 2
b10110 %
b10110 /
1*
0#
#315
1#
#320
b1010 '
b1010 1
b1010 .
0*
0#
#321
b1100111110001010111001011001111 $
b10001 ,
b1011 +
#325
1#
#330
b1100111110001010111001011001111 )
b1100111110001010111001011001111 2
b10001 %
b10001 /
1*
0#
#335
1#
#340
b10000110110101111100110100001101 !
b10000110110101111100110100001101 3
b1000000100010010101111010000001 "
b1000000100010010101111010000001 4
b10000 '
b10000 1
b10010 &
b10010 0
b10000 .
b10010 -
0*
0#
#341
b11110001100010100110000111100 $
b1100 ,
b1100 +
#345
1#
#350
b11110001100010100110000111100 )
b11110001100010100110000111100 2
b1100 %
b1100 /
1*
0#
#355
1#
#360
b0 !
b0 3
b11011110101011011011111011101111 "
b11011110101011011011111011101111 4
b11000 '
b11000 1
b11111 &
b11111 0
b11000 .
b11111 -
0*
0#
#361
b1101100010010110011010011011000 $
b10100 ,
b1101 +
#365
1#
#370
b1101100010010110011010011011000 )
b1101100010010110011010011011000 2
b10100 %
b10100 /
1*
0#
#375
1#
#380
b10010000011001000010000100100000 !
b10010000011001000010000100100000 3
b0 "
b0 4
b1000 '
b1000 1
b10111 &
b10111 0
b1000 .
b10111 -
0*
0#
#381
b11011011000000100110010110110110 $
b11110 ,
b1110 +
#385
1#
#390
b11011011000000100110010110110110 )
b11011011000000100110010110110110 2
b11110 %
b11110 /
1*
0#
#395
1#
#400
b0 !
b0 3
b11010 '
b11010 1
b11100 &
b11100 0
b11010 .
b11100 -
0*
0#
#401
b10010101000011111101110100101010 $
b1011 ,
b1111 +
#405
1#
#410
b10010101000011111101110100101010 )
b10010101000011111101110100101010 2
b1011 %
b1011 /
1*
0#
#415
1#
#420
b111 '
b111 1
b0 &
b0 0
b111 .
b0 -
0*
0#
#421
b10100111111100100101010101001111 $
b11000 ,
b10000 +
#425
1#
#430
b10100111111100100101010101001111 )
b10100111111100100101010101001111 2
b11000 %
b11000 /
1*
0#
#435
1#
#440
b10011 '
b10011 1
b11 &
b11 0
b10011 .
b11 -
0*
0#
#441
b10001010101010100100101100010101 $
b111 ,
b10001 +
#445
1#
#450
b10001010101010100100101100010101 )
b10001010101010100100101100010101 2
b111 %
b111 /
1*
0#
#455
1#
#460
b11011110101011011011111011101111 "
b11011110101011011011111011101111 4
b11101 '
b11101 1
b11111 &
b11111 0
b11101 .
b11111 -
0*
0#
#461
b10100110001101011111101101001100 $
b10110 ,
b10010 +
#465
1#
#470
b10100110001101011111101101001100 )
b10100110001101011111101101001100 2
b10110 %
b10110 /
1*
0#
#475
1#
#480
b10100111111100100101010101001111 !
b10100111111100100101010101001111 3
b0 "
b0 4
b11000 '
b11000 1
b11001 &
b11001 0
b11000 .
b11001 -
0*
0#
#481
b1011011110011010110000010110111 $
b11111 ,
b10011 +
#485
1#
#490
b1011011110011010110000010110111 )
b1011011110011010110000010110111 2
b11111 %
b11111 /
1*
0#
#495
1#
#500
b0 !
b0 3
b1001100000111011100000010011 "
b1001100000111011100000010011 4
b101 '
b101 1
b1001 &
b1001 0
b101 .
b1001 -
0*
0#
#501
b11000100110111100011011110001001 $
b101 ,
b10100 +
#505
1#
#510
b11000100110111100011011110001001 )
b11000100110111100011011110001001 2
b101 %
b101 /
1*
0#
#515
b11000100110111100011011110001001 !
b11000100110111100011011110001001 3
1#
#520
b0 !
b0 3
b0 "
b0 4
b1101 '
b1101 1
b100 &
b100 0
b1101 .
b100 -
0*
0#
#521
b101000110001111111110001010001 $
b1101 ,
b10101 +
#525
1#
#530
b101000110001111111110001010001 )
b101000110001111111110001010001 2
b1101 %
b1101 /
1*
0#
#535
b101000110001111111110001010001 !
b101000110001111111110001010001 3
1#
#540
b10000110110101111100110100001101 !
b10000110110101111100110100001101 3
b10000 '
b10000 1
b11001 &
b11001 0
b10000 .
b11001 -
0*
0#
#541
b11100100010101111110110111001000 $
b1100 ,
b10110 +
#545
1#
#550
b11100100010101111110110111001000 )
b11100100010101111110110111001000 2
b1100 %
b1100 /
1*
0#
#555
1#
#560
b0 !
b0 3
b10001010101010100100101100010101 "
b10001010101010100100101100010101 4
b10011 '
b10011 1
b111 &
b111 0
b10011 .
b111 -
0*
0#
#561
b111111000001010000000001111110 $
b10001 ,
b10111 +
#565
1#
#570
b111111000001010000000001111110 )
b111111000001010000000001111110 2
b10001 %
b10001 /
1*
0#
#575
1#
#580
b10100110001101011111101101001100 "
b10100110001101011111101101001100 4
b10110 &
b10110 0
b10110 -
0*
0#
#581
b1101001111010111111011011010011 $
b11000 +
#585
1#
#590
b1101001111010111111011011010011 )
b1101001111010111111011011010011 2
1*
0#
#595
1#
#600
b10001010101010100100101100010101 !
b10001010101010100100101100010101 3
b10100111111100100101010101001111 "
b10100111111100100101010101001111 4
b111 '
b111 1
b11000 &
b11000 0
b111 .
b11000 -
0*
0#
#601
b10100100100010110100101101001001 $
b10101 ,
b11001 +
#605
1#
#610
b10100100100010110100101101001001 )
b10100100100010110100101101001001 2
b10101 %
b10101 /
1*
0#
#615
1#
#620
b1000000100010010101111010000001 !
b1000000100010010101111010000001 3
b0 "
b0 4
b10010 '
b10010 1
b11 &
b11 0
b10010 .
b11 -
0*
0#
#621
b1000011001111110011100010000110 $
b11010 +
#625
1#
#630
b1000011001111110011100010000110 )
b1000011001111110011100010000110 2
1*
0#
#635
1#
#640
b1001100000111011100000010011 !
b1001100000111011100000010011 3
b10010000011001000010000100100000 "
b10010000011001000010000100100000 4
b1001 '
b1001 1
b1000 &
b1000 0
b1001 .
b1000 -
0*
0#
#641
b10011011111011011110000100110 $
b11111 ,
b11011 +
#645
1#
#650
b10011011111011011110000100110 )
b10011011111011011110000100110 2
b11111 %
b11111 /
1*
0#
#655
1#
#660
b0 !
b0 3
b0 "
b0 4
b1010 '
b1010 1
b10111 &
b10111 0
b1010 .
b10111 -
0*
0#
#661
b1011001110100101001001010110011 $
b10 ,
b11100 +
#665
1#
#670
b1011001110100101001001010110011 )
b1011001110100101001001010110011 2
b10 %
b10 /
1*
0#
#675
1#
#680
b1101100010010110011010011011000 !
b1101100010010110011010011011000 3
b11000100110111100011011110001001 "
b11000100110111100011011110001001 4
b10100 '
b10100 1
b101 &
b101 0
b10100 .
b101 -
0*
0#
#681
b1100101100110110011011011001011 $
b11111 ,
b11101 +
#685
1#
#690
b1100101100110110011011011001011 )
b1100101100110110011011011001011 2
b11111 %
b11111 /
1*
0#
#695
1#
#700
b1000011001111110011100010000110 !
b1000011001111110011100010000110 3
b1100010110010100100111011000101 "
b1100010110010100100111011000101 4
b10101 '
b10101 1
b1110 &
b1110 0
b10101 .
b1110 -
0*
0#
#701
b1110110100000101110001011101101 $
b10010 ,
b11110 +
#705
1#
#710
b1110110100000101110001011101101 )
b1110110100000101110001011101101 2
b10010 %
b10010 /
1*
0#
#715
1#
#720
b0 !
b0 3
b101000110001111111110001010001 "
b101000110001111111110001010001 4
b110 '
b110 1
b1101 &
b1101 0
b110 .
b1101 -
0*
0#
#721
b1101111101111101001010011011111 $
b1011 ,
b11111 +
#725
1#
#730
b1101111101111101001010011011111 )
b1101111101111101001010011011111 2
b1011 %
b1011 /
1*
0#
#735
1#
#740
b1101100010010110011010011011000 !
b1101100010010110011010011011000 3
b0 "
b0 4
b10100 '
b10100 1
b10111 &
b10111 0
b10100 .
b10111 -
0*
0#
#741
b10010101000010010000101100101010 $
b1101 ,
b100000 +
#745
1#
#750
b10010101000010010000101100101010 )
b10010101000010010000101100101010 2
b1101 %
b1101 /
1*
0#
#755
1#
#760
b10000110110101111100110100001101 !
b10000110110101111100110100001101 3
b10000 '
b10000 1
b11010 &
b11010 0
b10000 .
b11010 -
0*
0#
#761
b1001101010111101011110010011010 $
b11101 ,
b100001 +
#765
1#
#770
b1001101010111101011110010011010 )
b1001101010111101011110010011010 2
b11101 %
b11101 /
1*
0#
#775
1#
#780
b11100100010101111110110111001000 !
b11100100010101111110110111001000 3
b1100 '
b1100 1
b1111 &
b1111 0
b1100 .
b1111 -
0*
0#
#781
b10100111011110011110100101001110 $
b10101 ,
b100010 +
#785
1#
#790
b10100111011110011110100101001110 )
b10100111011110011110100101001110 2
b10101 %
b10101 /
1*
0#
#795
1#
#800
b0 !
b0 3
b0 '
b0 1
b110 &
b110 0
b0 .
b110 -
0*
0#
#801
b11100000011101000101000111000 $
b11011 ,
b100011 +
#805
1#
#810
b11100000011101000101000111000 )
b11100000011101000101000111000 2
b11011 %
b11011 /
1*
0#
#815
1#
#820
b1101111101111101001010011011111 !
b1101111101111101001010011011111 3
b1011 '
b1011 1
b10111 &
b10111 0
b1011 .
b10111 -
0*
0#
#821
b11001001110001100101110110010011 $
b11001 ,
b100100 +
#825
1#
#830
b11001001110001100101110110010011 )
b11001001110001100101110110010011 2
b11001 %
b11001 /
1*
0#
#835
1#
#840
b11000100110111100011011110001001 !
b11000100110111100011011110001001 3
b101 '
b101 1
b0 &
b0 0
b101 .
b0 -
0*
0#
#841
b100110111111001101111001001101 $
b11101 ,
b100101 +
#845
1#
#850
b100110111111001101111001001101 )
b100110111111001101111001001101 2
b11101 %
b11101 /
1*
0#
#855
1#
#860
b0 !
b0 3
b100110111111001101111001001101 "
b100110111111001101111001001101 4
b110 '
b110 1
b11101 &
b11101 0
b110 .
b11101 -
0*
0#
#861
b11100101001110110100100111001010 $
b111 ,
b100110 +
#865
1#
#870
b11100101001110110100100111001010 )
b11100101001110110100100111001010 2
b111 %
b111 /
1*
0#
#875
1#
#880
b11001001110001100101110110010011 !
b11001001110001100101110110010011 3
b11100000011101000101000111000 "
b11100000011101000101000111000 4
b11001 '
b11001 1
b11011 &
b11011 0
b11001 .
b11011 -
0*
0#
#881
b10000010011101001001101100000100 $
b100 ,
b100111 +
#885
1#
#890
b10000010011101001001101100000100 )
b10000010011101001001101100000100 2
b100 %
b100 /
1*
0#
#895
1#
#900
b10100110001101011111101101001100 !
b10100110001101011111101101001100 3
b1100101100110110011011011001011 "
b1100101100110110011011011001011 4
b10110 '
b10110 1
b11111 &
b11111 0
b10110 .
b11111 -
0*
0#
#901
b11000100000000011000110110001000 $
b1011 ,
b101000 +
#905
1#
#910
b11000100000000011000110110001000 )
b11000100000000011000110110001000 2
b1011 %
b1011 /
1*
0#
#915
1#
#920
b1011001110100101001001010110011 !
b1011001110100101001001010110011 3
b1110110100000101110001011101101 "
b1110110100000101110001011101101 4
b10 '
b10 1
b10010 &
b10010 0
b10 .
b10010 -
0*
0#
#921
b10111010111001001110000101110 $
b1100 ,
b101001 +
#925
1#
#930
b10111010111001001110000101110 )
b10111010111001001110000101110 2
b1100 %
b1100 /
1*
0#
#935
1#
#940
b1101001111010111111011011010011 !
b1101001111010111111011011010011 3
b0 "
b0 4
b10001 '
b10001 1
b0 &
b0 0
b10001 .
b0 -
0*
0#
#941
b10010100100111100000011100101001 $
b1111 ,
b101010 +
#945
1#
#950
b10010100100111100000011100101001 )
b10010100100111100000011100101001 2
b1111 %
b1111 /
1*
0#
#955
1#
#960
b10100111111100100101010101001111 !
b10100111111100100101010101001111 3
b11000111111011001101101110001111 "
b11000111111011001101101110001111 4
b11000 '
b11000 1
b1 &
b1 0
b11000 .
b1 -
0*
0#
#961
b11110101101111100011000111101 $
b1101 ,
b101011 +
#965
1#
#970
b11110101101111100011000111101 )
b11110101101111100011000111101 2
b1101 %
b1101 /
1*
0#
#975
1#
#980
b11100101001110110100100111001010 !
b11100101001110110100100111001010 3
b10100110001101011111101101001100 "
b10100110001101011111101101001100 4
b111 '
b111 1
b10110 &
b10110 0
b111 .
b10110 -
0*
0#
#981
b11011101011100011001100110111010 $
b111 ,
b101100 +
#985
1#
#990
b11011101011100011001100110111010 )
b11011101011100011001100110111010 2
b111 %
b111 /
1*
0#
#995
b11011101011100011001100110111010 !
b11011101011100011001100110111010 3
1#
#1000
b1100101100110110011011011001011 !
b1100101100110110011011011001011 3
b10100111011110011110100101001110 "
b10100111011110011110100101001110 4
b11111 '
b11111 1
b10101 &
b10101 0
b11111 .
b10101 -
0*
0#
#1001
b1101001001001111011000011010 $
b11101 ,
b101101 +
#1005
1#
#1010
b1101001001001111011000011010 )
b1101001001001111011000011010 2
b11101 %
b11101 /
1*
0#
#1015
1#
#1020
b0 !
b0 3
b11000100000000011000110110001000 "
b11000100000000011000110110001000 4
b10011 '
b10011 1
b1011 &
b1011 0
b10011 .
b1011 -
0*
0#
#1021
b11100000001110010010000111000000 $
b11001 ,
b101110 +
#1025
1#
#1030
b11100000001110010010000111000000 )
b11100000001110010010000111000000 2
b11001 %
b11001 /
1*
0#
#1035
1#
#1040
b11000100000000011000110110001000 !
b11000100000000011000110110001000 3
b1110110100000101110001011101101 "
b1110110100000101110001011101101 4
b1011 '
b1011 1
b10010 &
b10010 0
b1011 .
b10010 -
0*
0#
#1041
b11101110010111110000111111011100 $
b10111 ,
b101111 +
#1045
1#
#1050
b11101110010111110000111111011100 )
b11101110010111110000111111011100 2
b10111 %
b10111 /
1*
0#
#1055
1#
#1060
b11101110010111110000111111011100 !
b11101110010111110000111111011100 3
b10100111111100100101010101001111 "
b10100111111100100101010101001111 4
b10111 '
b10111 1
b11000 &
b11000 0
b10111 .
b11000 -
0*
0#
#1061
b1101101100011011000000011011011 $
b110000 +
#1065
1#
#1070
b1101101100011011000000011011011 )
b1101101100011011000000011011011 2
1*
0#
#1075
b1101101100011011000000011011011 !
b1101101100011011000000011011011 3
1#
#1080
b10111010111001001110000101110 "
b10111010111001001110000101110 4
b1100 &
b1100 0
b1100 -
0*
0#
#1081
b110000101111001110111001100001 $
b1111 ,
b110001 +
#1085
1#
#1090
b110000101111001110111001100001 )
b110000101111001110111001100001 2
b1111 %
b1111 /
1*
0#
#1095
1#
#1100
b0 !
b0 3
b1101001111010111111011011010011 "
b1101001111010111111011011010011 4
b1010 '
b1010 1
b10001 &
b10001 0
b1010 .
b10001 -
0*
0#
#1101
b101000011000111001011001010000 $
b11000 ,
b110010 +
#1105
1#
#1110
b101000011000111001011001010000 )
b101000011000111001011001010000 2
b11000 %
b11000 /
1*
0#
#1115
1#
#1120
b1100101100110110011011011001011 "
b1100101100110110011011011001011 4
b11 '
b11 1
b11111 &
b11111 0
b11 .
b11111 -
0*
0#
#1121
b11100000101100010111010111000001 $
b10 ,
b110011 +
#1125
1#
#1130
b11100000101100010111010111000001 )
b11100000101100010111010111000001 2
b10 %
b10 /
1*
0#
#1135
1#
#1140
b1001100000111011100000010011 !
b1001100000111011100000010011 3
b10111010111001001110000101110 "
b10111010111001001110000101110 4
b1001 '
b1001 1
b1100 &
b1100 0
b1001 .
b1100 -
0*
0#
#1141
b111001100011000100001001110011 $
b10100 ,
b110100 +
#1145
1#
#1150
b111001100011000100001001110011 )
b111001100011000100001001110011 2
b10100 %
b10100 /
1*
0#
#1155
1#
#1160
b10010000011001000010000100100000 !
b10010000011001000010000100100000 3
b1100010110010100100111011000101 "
b1100010110010100100111011000101 4
b1000 '
b1000 1
b1110 &
b1110 0
b1000 .
b1110 -
0*
0#
#1161
b1010100010010111000000010101000 $
b110101 +
#1165
1#
#1170
b1010100010010111000000010101000 )
b1010100010010111000000010101000 2
1*
0#
#1175
1#
#1180
b0 !
b0 3
b0 "
b0 4
b1010 '
b1010 1
b11010 &
b11010 0
b1010 .
b11010 -
0*
0#
#1181
b1110011001101000110011011100110 $
b10000 ,
b110110 +
#1185
1#
#1190
b1110011001101000110011011100110 )
b1110011001101000110011011100110 2
b10000 %
b10000 /
1*
0#
#1195
1#
#1200
b1110110100000101110001011101101 !
b1110110100000101110001011101101 3
b1001100000111011100000010011 "
b1001100000111011100000010011 4
b10010 '
b10010 1
b1001 &
b1001 0
b10010 .
b1001 -
0*
0#
#1201
b1000110101101011111010010001101 $
b10010 ,
b110111 +
#1205
1#
#1210
b1000110101101011111010010001101 )
b1000110101101011111010010001101 2
b10010 %
b10010 /
1*
0#
#1215
b1000110101101011111010010001101 !
b1000110101101011111010010001101 3
1#
#1220
b0 !
b0 3
b11100000001110010010000111000000 "
b11100000001110010010000111000000 4
b11 '
b11 1
b11001 &
b11001 0
b11 .
b11001 -
0*
0#
#1221
b11100100011001001110001111001000 $
b111 ,
b111000 +
#1225
1#
#1230
b11100100011001001110001111001000 )
b11100100011001001110001111001000 2
b111 %
b111 /
1*
0#
#1235
1#
#1240
b1101001111010111111011011010011 !
b1101001111010111111011011010011 3
b0 "
b0 4
b10001 '
b10001 1
b11100 &
b11100 0
b10001 .
b11100 -
0*
0#
#1241
b1100011101101111010111011000111 $
b10110 ,
b111001 +
#1245
1#
#1250
b1100011101101111010111011000111 )
b1100011101101111010111011000111 2
b10110 %
b10110 /
1*
0#
#1255
1#
#1260
b11100000011101000101000111000 !
b11100000011101000101000111000 3
b11100000011101000101000111000 "
b11100000011101000101000111000 4
b11011 '
b11011 1
b11011 &
b11011 0
b11011 .
b11011 -
0*
0#
#1261
b11011100100000101001010110111001 $
b11100 ,
b111010 +
#1265
1#
#1270
b11011100100000101001010110111001 )
b11011100100000101001010110111001 2
b11100 %
b11100 /
1*
0#
#1275
1#
#1280
b11000100000000011000110110001000 !
b11000100000000011000110110001000 3
b11100000001110010010000111000000 "
b11100000001110010010000111000000 4
b1011 '
b1011 1
b11001 &
b11001 0
b1011 .
b11001 -
0*
0#
#1281
b1000011001100111001000010000110 $
b10111 ,
b111011 +
#1285
1#
#1290
b1000011001100111001000010000110 )
b1000011001100111001000010000110 2
b10111 %
b10111 /
1*
0#
#1295
1#
#1300
b110000101111001110111001100001 !
b110000101111001110111001100001 3
b1100101100110110011011011001011 "
b1100101100110110011011011001011 4
b1111 '
b1111 1
b11111 &
b11111 0
b1111 .
b11111 -
0*
0#
#1301
b1011110110011100101111010111101 $
b10011 ,
b111100 +
#1305
1#
#1310
b1011110110011100101111010111101 )
b1011110110011100101111010111101 2
b10011 %
b10011 /
1*
0#
#1315
1#
#1320
b1100010110010100100111011000101 !
b1100010110010100100111011000101 3
b101000011000111001011001010000 "
b101000011000111001011001010000 4
b1110 '
b1110 1
b11000 &
b11000 0
b1110 .
b11000 -
0*
0#
#1321
b11010100101010000111100110101001 $
b11100 ,
b111101 +
#1325
1#
#1330
b11010100101010000111100110101001 )
b11010100101010000111100110101001 2
b11100 %
b11100 /
1*
0#
#1335
1#
#1340
b101000011000111001011001010000 !
b101000011000111001011001010000 3
b0 "
b0 4
b11000 '
b11000 1
b1010 &
b1010 0
b11000 .
b1010 -
0*
0#
#1341
b101111001010001111000001011 $
b1111 ,
b111110 +
#1345
1#
#1350
b101111001010001111000001011 )
b101111001010001111000001011 2
b1111 %
b1111 /
1*
0#
#1355
1#
#1360
b11010100101010000111100110101001 !
b11010100101010000111100110101001 3
b1100010110010100100111011000101 "
b1100010110010100100111011000101 4
b11100 '
b11100 1
b1110 &
b1110 0
b11100 .
b1110 -
0*
0#
#1361
b111010101100010100100001110101 $
b10011 ,
b111111 +
#1365
1#
#1370
b111010101100010100100001110101 )
b111010101100010100100001110101 2
b10011 %
b10011 /
1*
0#
#1375
1#
#1380
b1100011101101111010111011000111 !
b1100011101101111010111011000111 3
b10010000011001000010000100100000 "
b10010000011001000010000100100000 4
b10110 '
b10110 1
b1000 &
b1000 0
b10110 .
b1000 -
0*
0#
#1381
b1010111001111111011010010101110 $
b11000 ,
b1000000 +
#1385
1#
#1390
b1010111001111111011010010101110 )
b1010111001111111011010010101110 2
b11000 %
b11000 /
1*
0#
#1395
1#
#1400
b11100000001110010010000111000000 !
b11100000001110010010000111000000 3
b11100000001110010010000111000000 "
b11100000001110010010000111000000 4
b11001 '
b11001 1
b11001 &
b11001 0
b11001 .
b11001 -
0*
0#
#1401
b10110100001001110000000101101 $
b10010 ,
b1000001 +
#1405
1#
#1410
b10110100001001110000000101101 )
b10110100001001110000000101101 2
b10010 %
b10010 /
1*
0#
#1415
1#
#1420
b10111010111001001110000101110 !
b10111010111001001110000101110 3
b1010100010010111000000010101000 "
b1010100010010111000000010101000 4
b1100 '
b1100 1
b10100 &
b10100 0
b1100 .
b10100 -
0*
0#
#1421
b10000110101100110000010100001101 $
b1 ,
b1000010 +
#1425
1#
#1430
b10000110101100110000010100001101 )
b10000110101100110000010100001101 2
b1 %
b1 /
1*
0#
#1435
1#
#1440
b1101001111010111111011011010011 !
b1101001111010111111011011010011 3
b11011011000000100110010110110110 "
b11011011000000100110010110110110 4
b10001 '
b10001 1
b11110 &
b11110 0
b10001 .
b11110 -
0*
0#
#1441
b1000011011101100001110010000110 $
b11101 ,
b1000011 +
#1445
1#
#1450
b1000011011101100001110010000110 )
b1000011011101100001110010000110 2
b11101 %
b11101 /
1*
0#
#1455
1#
#1460
b0 !
b0 3
b10000010011101001001101100000100 "
b10000010011101001001101100000100 4
b11 '
b11 1
b100 &
b100 0
b11 .
b100 -
0*
0#
#1461
b10101001111011111110100101010011 $
b1000100 +
#1465
1#
#1470
b10101001111011111110100101010011 )
b10101001111011111110100101010011 2
1*
0#
#1475
1#
#1480
b11000100110111100011011110001001 !
b11000100110111100011011110001001 3
b11000100110111100011011110001001 "
b11000100110111100011011110001001 4
b101 '
b101 1
b101 &
b101 0
b101 .
b101 -
0*
0#
#1481
b10011100111110001000000100 $
b1110 ,
b1000101 +
#1485
1#
#1490
b10011100111110001000000100 )
b10011100111110001000000100 2
b1110 %
b1110 /
1*
0#
#1495
1#
#1500
b11110101101111100011000111101 !
b11110101101111100011000111101 3
b1000011001100111001000010000110 "
b1000011001100111001000010000110 4
b1101 '
b1101 1
b10111 &
b10111 0
b1101 .
b10111 -
0*
0#
#1501
b1011100000000110100010010111000 $
b10001 ,
b1000110 +
#1505
1#
#1510
b1011100000000110100010010111000 )
b1011100000000110100010010111000 2
b10001 %
b10001 /
1*
0#
#1515
1#
#1520
b10011100111110001000000100 !
b10011100111110001000000100 3
b0 "
b0 4
b1110 '
b1110 1
b11 &
b11 0
b1110 .
b11 -
0*
0#
#1521
b10010101100010010000111100101011 $
b1010 ,
b1000111 +
#1525
1#
#1530
b10010101100010010000111100101011 )
b10010101100010010000111100101011 2
b1010 %
b1010 /
1*
0#
#1535
1#
#1540
b11010100101010000111100110101001 !
b11010100101010000111100110101001 3
b1010111001111111011010010101110 "
b1010111001111111011010010101110 4
b11100 '
b11100 1
b11000 &
b11000 0
b11100 .
b11000 -
0*
0#
#1541
b11010000110101011111100110100001 $
b10010 ,
b1001000 +
#1545
1#
#1550
b11010000110101011111100110100001 )
b11010000110101011111100110100001 2
b10010 %
b10010 /
1*
0#
#1555
1#
#1560
b0 !
b0 3
b10000110101100110000010100001101 "
b10000110101100110000010100001101 4
b0 '
b0 1
b1 &
b1 0
b0 .
b1 -
0*
0#
#1561
b1001011010111001000000010010110 $
b10101 ,
b1001001 +
#1565
1#
#1570
b1001011010111001000000010010110 )
b1001011010111001000000010010110 2
b10101 %
b10101 /
1*
0#
#1575
1#
#1580
b10000110101100110000010100001101 !
b10000110101100110000010100001101 3
b1011100000000110100010010111000 "
b1011100000000110100010010111000 4
b1 '
b1 1
b10001 &
b10001 0
b1 .
b10001 -
0*
0#
#1581
b1011000101011001110001010110001 $
b1001 ,
b1001010 +
#1585
1#
#1590
b1011000101011001110001010110001 )
b1011000101011001110001010110001 2
b1001 %
b1001 /
1*
0#
#1595
1#
#1600
b10011100111110001000000100 !
b10011100111110001000000100 3
b1001011010111001000000010010110 "
b1001011010111001000000010010110 4
b1110 '
b1110 1
b10101 &
b10101 0
b1110 .
b10101 -
0*
0#
#1601
b11111010101100010001101111110101 $
b10010 ,
b1001011 +
#1605
1#
#1610
b11111010101100010001101111110101 )
b11111010101100010001101111110101 2
b10010 %
b10010 /
1*
0#
#1615
1#
#1620
b11100000101100010111010111000001 !
b11100000101100010111010111000001 3
b0 "
b0 4
b10 '
b10 1
b11010 &
b11010 0
b10 .
b11010 -
0*
0#
#1621
b1010011101010001110010010100111 $
b11000 ,
b1001100 +
#1625
1#
