build/wave.vcd
$date
	Fri Feb 27 15:49:31 2026
$end
$version
	Icarus Verilog
$end
$timescale
	1s
$end
$scope module tb_alu $end
$var wire 1 ! zero $end
$var wire 32 " y [31:0] $end
$var reg 32 # a [31:0] $end
$var reg 32 $ b [31:0] $end
$var reg 4 % op [3:0] $end
$scope function golden $end
$upscope $end
$scope module dut $end
$var wire 32 & a [31:0] $end
$var wire 32 ' as [31:0] $end
$var wire 32 ( b [31:0] $end
$var wire 32 ) bs [31:0] $end
$var wire 4 * op [3:0] $end
$var wire 1 ! zero $end
$var reg 32 + y [31:0] $end
$upscope $end
$scope begin $ivl_for_loop0 $end
$var integer 32 , i [31:0] $end
$upscope $end
$scope task check_one $end
$upscope $end
$upscope $end
$enddefinitions $end
#0
$dumpvars
b0 ,
b1101 +
b0 *
b11 )
b11 (
b1010 '
b1010 &
b0 %
b11 $
b1010 #
b1101 "
0!
$end
#1
0!
b111 "
b111 +
b1 %
b1 *
#2
0!
b11110000 "
b11110000 +
b10 %
b10 *
b111111110000 $
b111111110000 (
b111111110000 )
b1111000011110000 #
b1111000011110000 &
b1111000011110000 '
#3
0!
b1111111111110000 "
b1111111111110000 +
b11 %
b11 *
#4
0!
b1111111111111111 "
b1111111111111111 +
b100 %
b100 *
b101010101010101 $
b101010101010101 (
b101010101010101 )
b1010101010101010 #
b1010101010101010 &
b1010101010101010 '
#5
0!
b100000 "
b100000 +
b101 %
b101 *
b101 $
b101 (
b101 )
b1 #
b1 &
b1 '
#6
0!
b1000000000000000000000000000000 "
b1000000000000000000000000000000 +
b110 %
b110 *
b1 $
b1 (
b1 )
b10000000000000000000000000000000 #
b10000000000000000000000000000000 &
b10000000000000000000000000000000 '
#7
0!
b11000000000000000000000000000000 "
b11000000000000000000000000000000 +
b111 %
b111 *
#8
0!
b1 "
b1 +
b1000 %
b1000 *
b11111111111111111111111111111111 #
b11111111111111111111111111111111 &
b11111111111111111111111111111111 '
#9
1!
b0 "
b0 +
b1001 %
b1001 *
#10
0!
b11010010100111101001001110100101 "
b11010010100111101001001110100101 +
b0 %
b0 *
b1000000100010010101111010000001 $
b1000000100010010101111010000001 (
b1000000100010010101111010000001 )
b10010010000101010011010100100100 #
b10010010000101010011010100100100 &
b10010010000101010011010100100100 '
#11
0!
b11000111110000010 "
b11000111110000010 +
b111 %
b111 *
b10000110101110010111101100001101 $
b10000110101110010111101100001101 (
b10000110101110010111101100001101 )
b110001111100000101011001100011 #
b110001111100000101011001100011 &
b110001111100000101011001100011 '
b1 ,
#12
0!
b10001100101000000000000000000 "
b10001100101000000000000000000 +
b101 %
b101 *
b1001001101110101001000010010 $
b1001001101110101001000010010 (
b1001001101110101001000010010 )
b110010110000101000010001100101 #
b110010110000101000010001100101 &
b110010110000101000010001100101 '
b10 ,
#13
0!
b1000011011 "
b1000011011 +
b110 %
b110 *
b10111011001000111111000101110110 $
b10111011001000111111000101110110 (
b10111011001000111111000101110110 )
b10000110110101111100110100001101 #
b10000110110101111100110100001101 &
b10000110110101111100110100001101 '
b11 ,
#14
1!
b0 "
b0 +
b1001 %
b1001 *
b11000110001011011111011110001100 $
b11000110001011011111011110001100 (
b11000110001011011111011110001100 )
b11110110110101000101011111101101 #
b11110110110101000101011111101101 &
b11110110110101000101011111101101 '
b100 ,
#15
0!
b1100011111101111010010011000111 "
b1100011111101111010010011000111 +
b11 %
b11 *
b1100010111101111000010011000101 $
b1100010111101111000010011000101 (
b1100010111101111000010011000101 )
b1100011001101110010010011000110 #
b1100011001101110010010011000110 &
b1100011001101110010010011000110 '
b101 ,
#16
0!
b101110100000100110101001011100 "
b101110100000100110101001011100 +
b0 %
b0 *
b111011110100100111001001110111 $
b111011110100100111001001110111 (
b111011110100100111001001110111 )
b11110010101011111111011111100101 #
b11110010101011111111011111100101 &
b11110010101011111111011111100101 '
b110 ,
#17
0!
b111110110111001011001001111101 "
b111110110111001011001001111101 +
b100 %
b100 *
b11111001001100000110100111110010 $
b11111001001100000110100111110010 (
b11111001001100000110100111110010 )
b11000111111011001101101110001111 #
b11000111111011001101101110001111 &
b11000111111011001101101110001111 '
b111 ,
#18
0!
b11101000000000001111010111 "
b11101000000000001111010111 +
b110 %
b110 *
b1100010110010100100111011000101 $
b1100010110010100100111011000101 (
b1100010110010100100111011000101 )
b1110100000000000111101011101000 #
b1110100000000000111101011101000 &
b1110100000000000111101011101000 '
b1000 ,
#19
0!
b1000111111000101101000010010000 "
b1000111111000101101000010010000 +
b1 %
b1 *
b10110101010110101100000101101 $
b10110101010110101100000101101 (
b10110101010110101100000101101 )
b1011110100011100010100010111101 #
b1011110100011100010100010111101 &
b1011110100011100010100010111101 '
b1001 ,
#20
0!
b1011000110000001000000010 "
b1011000110000001000000010 +
b10 %
b10 *
b10000101011100111000011100001010 $
b10000101011100111000011100001010 (
b10000101011100111000011100001010 )
b110001111011110110001001100011 #
b110001111011110110001001100011 &
b110001111011110110001001100011 '
b1010 ,
#21
0!
b11010101011111000110010110101010 "
b11010101011111000110010110101010 +
b11 %
b11 *
b11010101011110000100010110101010 $
b11010101011110000100010110101010 (
b11010101011110000100010110101010 )
b10010000011001000010000100100000 #
b10010000011001000010000100100000 &
b10010000011001000010000100100000 '
b1011 ,
#22
0!
b1010100101000111111011010101001 "
b1010100101000111111011010101001 +
b0 %
b0 *
b1001100000111011100000010011 $
b1001100000111011100000010011 (
b1001100000111011100000010011 )
b1001011001000000011111010010110 #
b1001011001000000011111010010110 &
b1001011001000000011111010010110 '
b1100 ,
#23
0!
b10011100001110000000101100111000 "
b10011100001110000000101100111000 +
b100 %
b100 *
b10110101100111111101110101101011 $
b10110101100111111101110101101011 (
b10110101100111111101110101101011 )
b101001101001111101011001010011 #
b101001101001111101011001010011 &
b101001101001111101011001010011 '
b1101 ,
#24
0!
b11010010100000001000000000000000 "
b11010010100000001000000000000000 +
b101 %
b101 *
b1010111010101100011111010101110 $
b1010111010101100011111010101110 (
b1010111010101100011111010101110 )
b1000101110100101000000010 #
b1000101110100101000000010 &
b1000101110100101000000010 '
b1110 ,
#25
0!
b111110001010111001011001111000 "
b111110001010111001011001111000 +
b10010001100001000100100100100011 $
b10010001100001000100100100100011 (
b10010001100001000100100100100011 )
b1100111110001010111001011001111 #
b1100111110001010111001011001111 &
b1100111110001010111001011001111 '
b1111 ,
#26
1!
b0 "
b0 +
b1001 %
b1001 *
b11110001100010100110000111100 $
b11110001100010100110000111100 (
b11110001100010100110000111100 )
b1100101011100110000101011001010 #
b1100101011100110000101011001010 &
b1100101011100110000101011001010 '
b10000 ,
#27
0!
b1100101111010101101001011001011 "
b1100101111010101101001011001011 +
b100 %
b100 *
b10100000110001001011001101000001 $
b10100000110001001011001101000001 (
b10100000110001001011001101000001 )
b11000101001011100110000110001010 #
b11000101001011100110000110001010 &
b11000101001011100110000110001010 '
b10001 ,
#28
1!
b0 "
b0 +
b1001 %
b1001 *
b1000100100010100001001010001001 $
b1000100100010100001001010001001 (
b1000100100010100001001010001001 )
b10111100001000001111001101111000 #
b10111100001000001111001101111000 &
b10111100001000001111001101111000 '
b10010 ,
#29
0!
b1 "
b1 +
b1000 %
b1000 *
b11100011010010111111100111000110 $
b11100011010010111111100111000110 (
b11100011010010111111100111000110 )
b11011011000000100110010110110110 #
b11011011000000100110010110110110 &
b11011011000000100110010110110110 '
b10011 ,
#30
0!
b11110011100001001101111111100110 "
b11110011100001001101111111100110 +
b0 %
b0 *
b10010101000011111101110100101010 $
b10010101000011111101110100101010 (
b10010101000011111101110100101010 )
b1011110011101010000001010111100 #
b1011110011101010000001010111100 &
b1011110011101010000001010111100 '
b10100 ,
#31
0!
b1110001001011110111110011 "
b1110001001011110111110011 +
b110 %
b110 *
b11000010111100100100000110000101 $
b11000010111100100100000110000101 (
b11000010111100100100000110000101 )
b111000100101111011111001110001 #
b111000100101111011111001110001 &
b111000100101111011111001110001 '
b10101 ,
#32
0!
b11101000001000010000000111010 "
b11101000001000010000000111010 +
b10 %
b10 *
b10011101000001100011001100111010 $
b10011101000001100011001100111010 (
b10011101000001100011001100111010 )
b11101110011000110000000111011 #
b11101110011000110000000111011 &
b11101110011000110000000111011 '
b10110 ,
#33
0!
b1 "
b1 +
b1001 %
b1001 *
b11111000110110011001101111110001 $
b11111000110110011001101111110001 (
b11111000110110011001101111110001 )
b10001010101010100100101100010101 #
b10001010101010100100101100010101 &
b10001010101010100100101100010101 '
b10111 ,
#34
1!
b0 "
b0 +
b1000 %
b1000 *
b10100110001101011111101101001100 $
b10100110001101011111101101001100 (
b10100110001101011111101101001100 )
b10110001001000110000011101100010 #
b10110001001000110000011101100010 &
b10110001001000110000011101100010 '
b11000 ,
#35
0!
b11111111111111011010100111111111 "
b11111111111111011010100111111111 +
b11 %
b11 *
b11111100011011011010100111111000 $
b11111100011011011010100111111000 (
b11111100011011011010100111111000 )
b11000111101110011010000110001111 #
b11000111101110011010000110001111 &
b11000111101110011010000110001111 '
b11001 ,
#36
0!
b100001010001101100001001000011 "
b100001010001101100001001000011 +
b1 %
b1 *
b101110011111011001010001011100 $
b101110011111011001010001011100 (
b101110011111011001010001011100 )
b1001111110001000101011010011111 #
b1001111110001000101011010011111 &
b1001111110001000101011010011111 '
b11010 ,
#37
0!
b11100000011100000000010111000000 "
b11100000011100000000010111000000 +
b100 %
b100 *
b100100101011100011001001001001 $
b100100101011100011001001001001 (
b100100101011100011001001001001 )
b11000100110111100011011110001001 #
b11000100110111100011011110001001 &
b11000100110111100011011110001001 '
b11011 ,
#38
0!
b11010111111111 "
b11010111111111 +
b111 %
b111 *
b101000110001111111110001010001 $
b101000110001111111110001010001 (
b101000110001111111110001010001 )
b1101011111111101100000011010111 #
b1101011111111101100000011010111 &
b1101011111111101100000011010111 '
b11100 ,
#39
0!
b1 "
b1 +
b1000 %
b1000 *
b1100001001011001100111011000010 $
b1100001001011001100111011000010 (
b1100001001011001100111011000010 )
b10000110000111010111111100001100 #
b10000110000111010111111100001100 &
b10000110000111010111111100001100 '
b11101 ,
#40
0!
b11100000000000000000000000000000 "
b11100000000000000000000000000000 +
b101 %
b101 *
b10011110111100101110110100111101 $
b10011110111100101110110100111101 (
b10011110111100101110110100111101 )
b111011100000100101101001110111 #
b111011100000100101101001110111 &
b111011100000100101101001110111 '
b11110 ,
#41
0!
b11111100000101000 "
b11111100000101000 +
b110 %
b110 *
b10110110111001011000000101101101 $
b10110110111001011000000101101101 (
b10110110111001011000000101101101 )
b111111000001010000000001111110 #
b111111000001010000000001111110 &
b111111000001010000000001111110 '
b11111 ,
#42
0!
b11111111111111111111000111111010 "
b11111111111111111111000111111010 +
b111 %
b111 *
b1101001111010111111011011010011 $
b1101001111010111111011011010011 (
b1101001111010111111011011010011 )
b10001111110100101000111100011111 #
b10001111110100101000111100011111 &
b10001111110100101000111100011111 '
b100000 ,
#43
0!
b111 "
b111 +
b110 %
b110 *
b10101101110110100101100101011011 $
b10101101110110100101100101011011 (
b10101101110110100101100101011011 )
b111100000101001000100001111000 #
b111100000101001000100001111000 &
b111100000101001000100001111000 '
b100001 ,
#44
0!
b1111111110010101011 "
b1111111110010101011 +
b10010101000011001010111100101010 $
b10010101000011001010111100101010 (
b10010101000011001010111100101010 )
b11111111100101010111000111111 #
b11111111100101010111000111111 &
b11111111100101010111000111111 '
b100010 ,
#45
0!
b1000111001111110011110010001110 "
b1000111001111110011110010001110 +
b11 %
b11 *
b1000111000110100000110010001110 $
b1000111000110100000110010001110 (
b1000111000110100000110010001110 )
b1000011001111110011100010000110 #
b1000011001111110011100010000110 &
b1000011001111110011100010000110 '
b100011 ,
#46
0!
b11111111111101001101011001100111 "
b11111111111101001101011001100111 +
b111 %
b111 *
b10011011111011011110000100110 $
b10011011111011011110000100110 (
b10011011111011011110000100110 )
b11111101001101011001100111111010 #
b11111101001101011001100111111010 &
b11111101001101011001100111111010 '
b100100 ,
#47
0!
b1010111100110111011110010101111 "
b1010111100110111011110010101111 +
b11 %
b11 *
b10111100110011010100000101111 $
b10111100110011010100000101111 (
b10111100110011010100000101111 )
b1010001100010111011010010100011 #
b1010001100010111011010010100011 &
b1010001100010111011010010100011 '
b100101 ,
#48
0!
b1 "
b1 +
b1001 %
b1001 *
b10100010001010010000110101000100 $
b10100010001010010000110101000100 (
b10100010001010010000110101000100 )
b101111110110000101011001011111 #
b101111110110000101011001011111 &
b101111110110000101011001011111 '
b100110 ,
#49
0!
b1100101100110110011011011 "
b1100101100110110011011011 +
b110 %
b110 *
b1110011000010010001101011100110 $
b1110011000010010001101011100110 (
b1110011000010010001101011100110 )
b1100101100110110011011011001011 #
b1100101100110110011011011001011 &
b1100101100110110011011011001011 '
b100111 ,
#50
0!
b11100010010011010010001111000100 "
b11100010010011010010001111000100 +
b100 %
b100 *
b1110110100000101110001011101101 $
b1110110100000101110001011101101 (
b1110110100000101110001011101101 )
b10010100110011111100000100101001 #
b10010100110011111100000100101001 &
b10010100110011111100000100101001 '
b101000 ,
#51
0!
b1101000000101010101010011010000 "
b1101000000101010101010011010000 +
b1011010100010101110001010110101 $
b1011010100010101110001010110101 (
b1011010100010101110001010110101 )
b110010100111111011011001100101 #
b110010100111111011011001100101 &
b110010100111111011011001100101 '
b101001 ,
#52
0!
b11110110000001110011000111101 "
b11110110000001110011000111101 +
b10100010001100011111111101000100 $
b10100010001100011111111101000100 (
b10100010001100011111111101000100 )
b10111100111100010001100101111001 #
b10111100111100010001100101111001 &
b10111100111100010001100101111001 '
b101010 ,
#53
0!
b1001000010110010101000000000000 "
b1001000010110010101000000000000 +
b101 %
b101 *
b11010101111101101010110110101011 $
b11010101111101101010110110101011 (
b11010101111101101010110110101011 )
b10010101000010010000101100101010 #
b10010101000010010000101100101010 &
b10010101000010010000101100101010 '
b101011 ,
#54
0!
b10100011000000110001000101000110 "
b10100011000000110001000101000110 +
b100 %
b100 *
b1001101010111101011110010011010 $
b1001101010111101011110010011010 (
b1001101010111101011110010011010 )
b11101110010111011010110111011100 #
b11101110010111011010110111011100 &
b11101110010111011010110111011100 '
b101100 ,
#55
0!
b110000111 "
b110000111 +
b110 %
b110 *
b10101011000011101110110101010110 $
b10101011000011101110110101010110 (
b10101011000011101110110101010110 )
b1100001111100010000001011000011 #
b1100001111100010000001011000011 &
b1100001111100010000001011000011 '
b101101 ,
#56
1!
b0 "
b0 +
b1000 %
b1000 *
b101001100010011010000001010 $
b101001100010011010000001010 (
b101001100010011010000001010 )
b110011110110010111011001100111 #
b110011110110010111011001100111 &
b110011110110010111011001100111 '
b101110 ,
#57
0!
b10111100110111111000111101111001 "
b10111100110111111000111101111001 +
b11 %
b11 *
b10111100110100011000011101111001 $
b10111100110100011000011101111001 (
b10111100110100011000011101111001 )
b11100000011101000101000111000 #
b11100000011101000101000111000 &
b11100000011101000101000111000 '
b101111 ,
#58
0!
b10010100001110110001110100100111 "
b10010100001110110001110100100111 +
b0 %
b0 *
b11001001110001100101110110010011 $
b11001001110001100101110110010011 (
b11001001110001100101110110010011 )
b11001010011101001011111110010100 #
b11001010011101001011111110010100 &
b11001010011101001011111110010100 '
b110000 ,
#59
0!
b111110111011000110000001111110 "
b111110111011000110000001111110 +
b1 %
b1 *
b11101101110010110110100111011011 $
b11101101110010110110100111011011 (
b11101101110010110110100111011011 )
b101100101101111100101001011001 #
b101100101101111100101001011001 &
b101100101101111100101001011001 '
b110001 ,
#60
0!
b100100101000000010011001001001 "
b100100101000000010011001001001 +
b10 %
b10 *
b110110101001000010011001101101 $
b110110101001000010011001101101 (
b110110101001000010011001101101 )
b11101100101100001011011111011001 #
b11101100101100001011011111011001 &
b11101100101100001011011111011001 '
b110010 ,
#61
0!
b11111111111111111111111110010100 "
b11111111111111111111111110010100 +
b111 %
b111 *
b11011011000101110010110110110110 $
b11011011000101110010110110110110 (
b11011011000101110010110110110110 )
b11100101001110110100100111001010 #
b11100101001110110100100111001010 &
b11100101001110110100100111001010 '
b110011 ,
#62
0!
b1 "
b1 +
b1001 %
b1001 *
b10000010011101001001101100000100 $
b10000010011101001001101100000100 (
b10000010011101001001101100000100 )
b100011000001110001101001000110 #
b100011000001110001101001000110 &
b100011000001110001101001000110 '
b110100 ,
#63
0!
b11111111111111111111101101001001 "
b11111111111111111111101101001001 +
b111 %
b111 *
b1011010011011101011101010110100 $
b1011010011011101011101010110100 (
b1011010011011101011101010110100 )
b10110100100110000000011101101001 #
b10110100100110000000011101101001 &
b10110100100110000000011101101001 '
b110101 ,
#64
0!
b10010110111111001101110100101101 "
b10010110111111001101110100101101 +
b11 %
b11 *
b10110100100000000010000101101 $
b10110100100000000010000101101 (
b10110100100000000010000101101 )
b10010100011111001101100100101000 #
b10010100011111001101100100101000 &
b10010100011111001101100100101000 '
b110110 ,
#65
0!
b1011100100111000010111000000000 "
b1011100100111000010111000000000 +
b101 %
b101 *
b100011101111110010000001000 $
b100011101111110010000001000 (
b100011101111110010000001000 )
b10111010111001001110000101110 #
b10111010111001001110000101110 &
b10111010111001001110000101110 '
b110111 ,
#66
0!
b10011010001011010111000100110 "
b10011010001011010111000100110 +
b0 %
b0 *
b10010100100111100000011100101001 $
b10010100100111100000011100101001 (
b10010100100111100000011100101001 )
b1111110101001111010011011111101 #
b1111110101001111010011011111101 &
b1111110101001111010011011111101 '
b111000 ,
#67
0!
b1010110000000010101111010101100 "
b1010110000000010101111010101100 +
b1 %
b1 *
b1101101001101000000100011011010 $
b1101101001101000000100011011010 (
b1101101001101000000100011011010 )
b11000011001101010110011110000110 #
b11000011001101010110011110000110 &
b11000011001101010110011110000110 '
b111001 ,
#68
0!
b110000010001001000010001100000 "
b110000010001001000010001100000 +
b10 %
b10 *
b111000010101011100010001110000 $
b111000010101011100010001110000 (
b111000010101011100010001110000 )
b10110011010011101010011101100110 #
b10110011010011101010011101100110 &
b10110011010011101010011101100110 '
b111010 ,
#69
1!
b0 "
b0 +
b1001 %
b1001 *
b10101111001110101011001101011110 $
b10101111001110101011001101011110 (
b10101111001110101011001101011110 )
b11011101011100011001100110111010 #
b11011101011100011001100110111010 &
b11011101011100011001100110111010 '
b111011 ,
#70
0!
b11101111101011101111011111011111 "
b11101111101011101111011111011111 +
b11 %
b11 *
b1101001001001111011000011010 $
b1101001001001111011000011010 (
b1101001001001111011000011010 )
b11101010100011100000010111010101 #
b11101010100011100000010111010101 &
b11101010100011100000010111010101 '
b111100 ,
#71
0!
b1 "
b1 +
b1000 %
b1000 *
b11001011001001110011011110010110 $
b11001011001001110011011110010110 (
b11001011001001110011011110010110 )
b10011011100001110110000100110111 #
b10011011100001110110000100110111 &
b10011011100001110110000100110111 '
b111101 ,
#72
0!
b11111111111111111111111001001100 "
b11111111111111111111111001001100 +
b111 %
b111 *
b1011011010001100001101010110110 $
b1011011010001100001101010110110 (
b1011011010001100001101010110110 )
b10010011001001011001111100100110 #
b10010011001001011001111100100110 &
b10010011001001011001111100100110 '
b111110 ,
#73
0!
b11111111101110010111110000111111 "
b11111111101110010111110000111111 +
b11000011011000010101011110000110 $
b11000011011000010101011110000110 (
b11000011011000010101011110000110 )
b11101110010111110000111111011100 #
b11101110010111110000111111011100 &
b11101110010111110000111111011100 '
b111111 ,
#74
0!
b11010010110101110001101110100101 "
b11010010110101110001101110100101 +
b100 %
b100 *
b1101101100011011000000011011011 $
b1101101100011011000000011011011 (
b1101101100011011000000011011011 )
b10111111010110101001101101111110 #
b10111111010110101001101101111110 &
b10111111010110101001101101111110 '
b1000000 ,
#75
0!
b111111110001000100011001111111 "
b111111110001000100011001111111 +
b1 %
b1 *
b1111101001010001110010011111010 $
b1111101001010001110010011111010 (
b1111101001010001110010011111010 )
b10111100111011010010101101111001 #
b10111100111011010010101101111001 &
b10111100111011010010101101111001 '
b1000001 ,
#76
0!
b11000101110010100000010010001011 "
b11000101110010100000010010001011 +
b111 %
b111 *
b1010000111101010111100010100001 $
b1010000111101010111100010100001 (
b1010000111101010111100010100001 )
b10001011100101000000100100010111 #
b10001011100101000000100100010111 &
b10001011100101000000100100010111 '
b1000010 ,
#77
0!
b101101110101110011110001011011 "
b101101110101110011110001011011 +
b1 %
b1 *
b11111010100011000101100111110101 $
b11111010100011000101100111110101 (
b11111010100011000101100111110101 )
b101000011000111001011001010000 #
b101000011000111001011001010000 &
b101000011000111001011001010000 '
b1000011 ,
#78
0!
b11110100101110111111111111101001 "
b11110100101110111111111111101001 +
b11 %
b11 *
b11100000101100010111010111000001 $
b11100000101100010111010111000001 (
b11100000101100010111010111000001 )
b10100100110101000101000101001 #
b10100100110101000101000101001 &
b10100100110101000101000101001 '
b1000100 ,
#79
0!
b100000000000011000000001000 "
b100000000000011000000001000 +
b10 %
b10 *
b10100101101100100111101101001011 $
b10100101101100100111101101001011 (
b10100101101100100111101101001011 )
b1001100000000011011010010011000 #
b1001100000000011011010010011000 &
b1001100000000011011010010011000 '
b1000101 ,
#80
0!
b111011000100010111001 "
b111011000100010111001 +
b110 %
b110 *
b1000101010100000001011010001010 $
b1000101010100000001011010001010 (
b1000101010100000001011010001010 )
b1110110001000101110011011101100 #
b1110110001000101110011011101100 &
b1110110001000101110011011101100 '
b1000110 ,
#81
0!
b11010100110111111111110110101001 "
b11010100110111111111110110101001 +
b11 %
b11 *
b11010100100111101111110110101001 $
b11010100100111101111110110101001 (
b11010100100111101111110110101001 )
b1010100010010111000000010101000 #
b1010100010010111000000010101000 &
b1010100010010111000000010101000 '
b1000111 ,
#82
0!
b11110111001111111111111111101110 "
b11110111001111111111111111101110 +
b1110011001101000110011011100110 $
b1110011001101000110011011100110 (
b1110011001101000110011011100110 )
b10000111000010111011100100001110 #
b10000111000010111011100100001110 &
b10000111000010111011100100001110 '
b1001000 ,
#83
0!
b10010101000010100001010100101010 "
b10010101000010100001010100101010 +
b10 %
b10 *
b10010101010110100001110100101010 $
b10010101010110100001110100101010 (
b10010101010110100001110100101010 )
b10010101001011111011010100101010 #
b10010101001011111011010100101010 &
b10010101001011111011010100101010 '
b1001001 ,
#84
0!
b1100011001011110011000011000 "
b1100011001011110011000011000 +
b11100011011011110011000111000 $
b11100011011011110011000111000 (
b11100011011011110011000111000 )
b11001111011101011111111110011110 #
b11001111011101011111111110011110 &
b11001111011101011111111110011110 '
b1001010 ,
#85
0!
b10010011100011110010000000000000 "
b10010011100011110010000000000000 +
b101 %
b101 *
b11100101001000110100010111001010 $
b11100101001000110100010111001010 (
b11100101001000110100010111001010 )
b11100100011001001110001111001000 #
b11100100011001001110001111001000 &
b11100100011001001110001111001000 '
b1001011 ,
#86
0!
b1 "
b1 +
b1000 %
b1000 *
b1100011101101111010111011000111 $
b1100011101101111010111011000111 (
b1100011101101111010111011000111 )
b10110101101000001100100101101011 #
b10110101101000001100100101101011 &
b10110101101000001100100101101011 '
b1001100 ,
#87
0!
b1 "
b1 +
b11100010000101101010101111000100 $
b11100010000101101010101111000100 (
b11100010000101101010101111000100 )
b11011101000001011001110110111010 #
b11011101000001011001110110111010 &
b11011101000001011001110110111010 '
b1001101 ,
#88
0!
b11111111111111111111110010010010 "
b11111111111111111111110010010010 +
b111 %
b111 *
b1011010001001101001101010110100 $
b1011010001001101001101010110100 (
b1011010001001101001101010110100 )
b11001001001011111101001110010010 #
b11001001001011111101001110010010 &
b11001001001011111101001110010010 '
b1001110 ,
#89
0!
b10111110010111100110010101111100 "
b10111110010111100110010101111100 +
b100 %
b100 *
b11111101011011011111010111111010 $
b11111101011011011111010111111010 (
b11111101011011011111010111111010 )
b1000011001100111001000010000110 #
b1000011001100111001000010000110 &
b1000011001100111001000010000110 '
b1001111 ,
#90
0!
b11111111111111111111111111111100 "
b11111111111111111111111111111100 +
b111 %
b111 *
b1011110110011100101111010111101 $
b1011110110011100101111010111101 (
b1011110110011100101111010111101 )
b10011001010001010010000100110010 #
b10011001010001010010000100110010 &
b10011001010001010010000100110010 '
b1010000 ,
#91
1!
b0 "
b0 +
b1000 %
b1000 *
b11100101010000111100111111001010 $
b11100101010000111100111111001010 (
b11100101010000111100111111001010 )
b1110010010010011010010011100100 #
b1110010010010011010010011100100 &
b1110010010010011010010011100100 '
b1010001 ,
#92
0!
b10010111111100000000000100101111 "
b10010111111100000000000100101111 +
b100 %
b100 *
b11000111011001011010100110001110 $
b11000111011001011010100110001110 (
b11000111011001011010100110001110 )
b1010000100101011010100010100001 #
b1010000100101011010100010100001 &
b1010000100101011010100010100001 '
b1010010 ,
#93
0!
b1 "
b1 +
b1000 %
b1000 *
b1110111100000101001000011101111 $
b1110111100000101001000011101111 (
b1110111100000101001000011101111 )
b101111001010001111000001011 #
b101111001010001111000001011 &
b101111001010001111000001011 '
b1010011 ,
#94
0!
b11010001000000100000000110100 "
b11010001000000100000000110100 +
b10 %
b10 *
b111010101100010100100001110101 $
b111010101100010100100001110101 (
b111010101100010100100001110101 )
b10011011011000001110010100110110 #
b10011011011000001110010100110110 &
b10011011011000001110010100110110 '
b1010100 ,
#95
0!
b11110101111011011111111111101011 "
b11110101111011011111111111101011 +
b11 %
b11 *
b11000100011001011110011110001000 $
b11000100011001011110011110001000 (
b11000100011001011110011110001000 )
b10110101110011011011111101101011 #
b10110101110011011011111101101011 &
b10110101110011011011111101101011 '
b1010101 ,
#96
0!
b110011011000000000000000000 "
b110011011000000000000000000 +
b101 %
b101 *
b11001001001111100100010110010010 $
b11001001001111100100010110010010 (
b11001001001111100100010110010010 )
b11001101111100111000000110011011 #
b11001101111100111000000110011011 &
b11001101111100111000000110011011 '
b1010110 ,
#97
0!
b10110111101101111111111101101111 "
b10110111101101111111111101101111 +
b11 %
b11 *
b10100101101101110101111101001011 $
b10100101101101110101111101001011 (
b10100101101101110101111101001011 )
b10110100001001110000000101101 #
b10110100001001110000000101101 &
b10110100001001110000000101101 '
b1010111 ,
#98
0!
b1 "
b1 +
b1001 %
b1001 *
b10000110101100110000010100001101 $
b10000110101100110000010100001101 (
b10000110101100110000010100001101 )
b1111000111001111011000011110 #
b1111000111001111011000011110 &
b1111000111001111011000011110 '
b1011000 ,
#99
0!
b10001000000000100001100100010000 "
b10001000000000100001100100010000 +
b10 %
b10 *
b11101000101011100001101111010001 $
b11101000101011100001101111010001 (
b11101000101011100001101111010001 )
b10001100000000111001110100011000 #
b10001100000000111001110100011000 &
b10001100000000111001110100011000 '
b1011001 ,
#100
1!
b0 "
b0 +
b1001 %
b1001 *
b11101101111110110010000111011 $
b11101101111110110010000111011 (
b11101101111110110010000111011 )
b100000110000000010010001000001 #
b100000110000000010010001000001 &
b100000110000000010010001000001 '
b1011010 ,
#101
0!
b1111110110101101000011011111101 "
b1111110110101101000011011111101 +
b1 %
b1 *
b101011000110010110001001010110 $
b101011000110010110001001010110 (
b101011000110010110001001010110 )
b10101001111011111110100101010011 #
b10101001111011111110100101010011 &
b10101001111011111110100101010011 '
b1011011 ,
#102
0!
b111000101100110111110101110 "
b111000101100110111110101110 +
b111 %
b111 *
b10011100111110001000000100 $
b10011100111110001000000100 (
b10011100111110001000000100 )
b1110001011001101111101011100010 #
b1110001011001101111101011100010 &
b1110001011001101111101011100010 '
b1011100 ,
#103
0!
b11101101011111101111110111011010 "
b11101101011111101111110111011010 +
b11 %
b11 *
b10001001001111100100110100010010 $
b10001001001111100100110100010010 (
b10001001001111100100110100010010 )
b1101100010100001011010011011000 #
b1101100010100001011010011011000 &
b1101100010100001011010011011000 '
b1011101 ,
#104
0!
b1111110100001111011011011111101 "
b1111110100001111011011011111101 +
b1110010100001111011011011100101 $
b1110010100001111011011011100101 (
b1110010100001111011011011100101 )
b11100100000010001001000111001 #
b11100100000010001001000111001 &
b11100100000010001001000111001 '
b1011110 ,
#105
0!
b1 "
b1 +
b1000 %
b1000 *
b11000000100100000101110110000001 $
b11000000100100000101110110000001 (
b11000000100100000101110110000001 )
b10010101100010010000111100101011 #
b10010101100010010000111100101011 &
b10010101100010010000111100101011 '
b1011111 ,
#106
0!
b1100100100010110100111011001000 "
b1100100100010110100111011001000 +
b0 %
b0 *
b11010000110101011111100110100001 $
b11010000110101011111100110100001 (
b11010000110101011111100110100001 )
b10010011101101010101010100100111 #
b10010011101101010101010100100111 &
b10010011101101010101010100100111 '
b1100000 ,
#107
0!
b1000000010001000000000 "
b1000000010001000000000 +
b10 %
b10 *
b10101100001011010010001101011000 $
b10101100001011010010001101011000 (
b10101100001011010010001101011000 )
b10001000100011101000000100 #
b10001000100011101000000100 &
b10001000100011101000000100 '
b1100001 ,
#108
0!
b1000000010001001000000010000 "
b1000000010001001000000010000 +
b1001000110011011010000010010 $
b1001000110011011010000010010 (
b1001000110011011010000010010 )
b10001010011011101001001100010100 #
b10001010011011101001001100010100 &
b10001010011011101001001100010100 '
b1100010 ,
#109
0!
b11110010011011100011011111100100 "
b11110010011011100011011111100100 +
b100 %
b100 *
b10101010110000101101010101010101 $
b10101010110000101101010101010101 (
b10101010110000101101010101010101 )
b1011000101011001110001010110001 #
b1011000101011001110001010110001 &
b1011000101011001110001010110001 '
b1100011 ,
#110
0!
b1 "
b1 +
b1000 %
b1000 *
b11111010101100010001101111110101 $
b11111010101100010001101111110101 (
b11111010101100010001101111110101 )
b10010101100010110010101100101011 #
b10010101100010110010101100101011 &
b10010101100010110010101100101011 '
b1100100 ,
#111
0!
b11010011110010011111111110100111 "
b11010011110010011111111110100111 +
b11 %
b11 *
b11000010010010011111111110000100 $
b11000010010010011111111110000100 (
b11000010010010011111111110000100 )
b10011110000010010001000100111 #
b10011110000010010001000100111 &
b10011110000010010001000100111 '
b1100101 ,
#112
0!
b10110111010000001011000101110 "
b10110111010000001011000101110 +
b1 %
b1 *
b1011100111011111001000010111001 $
b1011100111011111001000010111001 (
b1011100111011111001000010111001 )
b1110011110101111010011011100111 #
b1110011110101111010011011100111 &
b1110011110101111010011011100111 '
b1100110 ,
